{
    "app": {
        "name": "Application-service",
        "secret_key": "{{ cfg.webclient.secret }}",
        "access_log": false,
        "debug": {{ 'true' if debug_enable else 'false' }},
        "httpserver": {
            "host": "0.0.0.0",
            "port": 8080
        }
    },
    "session": {
        {% if cfg.webclient.session.user -%}
        "username": "{{ cfg.webclient.session.user }}",
        {% endif -%}
        {% if cfg.webclient.session.password  -%}
        "password": "{{ cfg.webclient.session.password }}",
        {% endif -%}
        {% if cfg.webclient.session.db -%}
        "db": {{ cfg.webclient.session.db }},
        {% endif -%}
        "host": "{{ cfg.webclient.session.server }}"
    },
    "api": {
        "url": "{{ cfg.webclient.api }}"
    },
    "sentry": {
        "enable": {{ 'true' if cfg.webclient.sentry.enable else 'false' }},
        "url": "{{ cfg.webclient.sentry.url }}",
        "environment": "{{ cfg.webclient.sentry.env }}",
        "rate": {{ cfg.webclient.sentry.rate }}
    },
    "logging": {
        "version": 1,
        "disable_existing_loggers": false,
        "formatters": {
            "c_short": {
                "format": "%(asctime)s.%(msecs)05d - [%(levelname)s] - %(name)s >> %(message)s",
                "datefmt": "%Y-%m-%d %H:%M:%S"
            }
        },
        "handlers": {
            "default_stream": {
                "class": "logging.StreamHandler",
                "level": "{{ 'DEBUG' if debug_enable else 'INFO' }}",
                "formatter": "c_short"
            }
        },
        "loggers": {
            "": {
                "handlers": [
                    "default_stream"
                ],
                "level": "{{ 'DEBUG' if debug_enable else 'INFO' }}",
                "propagate": true
            }
        }
    }
}